[
    {
      "id": "user1",
      "firstName": "Aldo",
      "lastName": "Doe",
      "location": "MTY"
    },
    {
      "id": "user2",
      "firstName": "Emmanuel",
      "lastName": "Doe",
      "location": "GDL"
    },
    {
      "id": "user3",
      "firstName": "AldoE",
      "lastName": "Smith",
      "location": "CDMX"
    }
  ]